<?xml version="1.0" standalone="no"?>
<!DOCTYPE svg PUBLIC "-//W3C//DTD SVG 20010904//EN"
 "http://www.w3.org/TR/2001/REC-SVG-20010904/DTD/svg10.dtd">
<svg version="1.0" xmlns="http://www.w3.org/2000/svg"
 width="226.000000pt" height="226.000000pt" viewBox="0 0 226.000000 226.000000"
 preserveAspectRatio="xMidYMid meet">
<metadata>
Created by potrace 1.14, written by Peter Selinger 2001-2017
</metadata>
<g transform="translate(0.000000,226.000000) scale(0.100000,-0.100000)"
fill="#000000" stroke="none">
<path d="M1100 1793 c-8 -3 -23 -12 -32 -21 -16 -13 -17 -61 -18 -639 l0 -624
24 -24 c34 -34 103 -35 134 -2 l22 23 0 625 0 626 -23 21 c-23 21 -71 28 -107
15z"/>
<path d="M1348 1622 c-16 -9 -28 -26 -29 -37 0 -11 -1 -221 -1 -467 -1 -471
-1 -465 44 -489 21 -11 72 11 82 36 3 8 6 220 6 469 0 416 -2 456 -18 474 -25
29 -53 34 -84 14z"/>
<path d="M849 1614 c-11 -14 -14 -104 -14 -473 -1 -251 1 -463 3 -472 2 -8 15
-22 30 -31 36 -20 77 -6 89 30 5 15 9 231 8 479 -1 438 -1 453 -20 468 -27 19
-79 19 -96 -1z"/>
<path d="M479 1583 c-11 -13 -14 -98 -14 -453 0 -395 2 -438 17 -453 18 -19
45 -22 68 -7 23 14 23 906 0 920 -23 15 -56 12 -71 -7z"/>
<path d="M1718 1583 c-6 -71 -3 -891 3 -904 13 -26 46 -29 73 -8 l24 19 0 441
c-1 486 2 469 -64 469 -25 0 -34 -5 -36 -17z"/>
<path d="M677 1452 c-10 -2 -22 -13 -26 -25 -6 -17 -8 -544 -2 -594 2 -20 40
-35 72 -28 20 5 31 14 36 33 3 14 6 139 5 277 -1 306 -1 307 -10 322 -8 13
-48 22 -75 15z"/>
<path d="M1549 1446 l-24 -12 -3 -289 c-1 -160 0 -300 3 -312 7 -29 58 -40 90
-19 l24 16 -2 299 c-1 198 -6 304 -13 311 -17 17 -49 19 -75 6z"/>
<path d="M312 1345 c-19 -22 -16 -419 3 -435 21 -17 58 -8 70 17 17 33 13 396
-4 417 -17 20 -52 20 -69 1z"/>
<path d="M1908 1349 c-16 -9 -18 -31 -18 -220 l0 -210 32 -14 c55 -23 61 -3
63 219 1 144 -2 197 -12 214 -14 24 -37 28 -65 11z"/>
<path d="M155 1269 c-9 -26 -8 -254 0 -280 8 -23 47 -25 65 -4 17 21 17 270 0
290 -19 22 -57 19 -65 -6z"/>
<path d="M2059 1263 c-10 -26 -11 -255 -2 -280 6 -16 59 -17 69 -1 10 15 11
264 2 289 -11 30 -56 25 -69 -8z"/>
<path d="M48 1219 c-15 -8 -18 -24 -18 -88 0 -86 15 -115 48 -94 29 18 23 194
-6 193 -4 0 -15 -5 -24 -11z"/>
<path d="M2194 1218 c-11 -17 -12 -139 -3 -165 10 -26 44 -31 53 -7 11 29 6
160 -6 172 -15 15 -35 15 -44 0z"/>
</g>
</svg>
