<svg width="11" height="10" viewBox="0 0 11 10" fill="none" xmlns="http://www.w3.org/2000/svg">
<path d="M7.9257 1.98169C7.62109 1.98169 7.37186 2.23092 7.37186 2.53553C7.37186 2.84015 7.62109 3.08938 7.9257 3.08938C8.23032 3.08938 8.47955 2.84015 8.47955 2.53553C8.47955 2.23092 8.23032 1.98169 7.9257 1.98169ZM10.0488 3.09861C10.0395 2.71554 9.97032 2.33707 9.83647 1.97707C9.72109 1.66784 9.53647 1.39092 9.30109 1.16015C9.07032 0.924766 8.7934 0.74015 8.48416 0.629381C8.12417 0.495535 7.7457 0.421689 7.36263 0.412458C6.8734 0.384766 6.71647 0.384766 5.46109 0.384766C4.2057 0.384766 4.04878 0.384766 3.55955 0.412458C3.17647 0.421689 2.79801 0.495535 2.43801 0.629381C2.12878 0.744766 1.85186 0.924766 1.62109 1.16015C1.3857 1.39092 1.20109 1.66784 1.09032 1.97707C0.956472 2.33707 0.882626 2.71554 0.873395 3.09861C0.845703 3.58784 0.845703 3.74477 0.845703 5.00015C0.845703 6.25554 0.845703 6.41246 0.873395 6.90169C0.882626 7.28477 0.956472 7.66323 1.09032 8.02323C1.20109 8.33246 1.3857 8.60938 1.62109 8.84015C1.85186 9.07554 2.12878 9.25554 2.43801 9.37092C2.79801 9.50477 3.17647 9.57861 3.55955 9.58784C4.04878 9.61554 4.2057 9.61554 5.46109 9.61554C6.71647 9.61554 6.8734 9.61554 7.36263 9.58784C7.7457 9.57861 8.12417 9.50477 8.48416 9.37092C8.7934 9.26015 9.07032 9.07554 9.30109 8.84015C9.53647 8.60938 9.72109 8.33246 9.83647 8.02323C9.97032 7.66323 10.0395 7.28477 10.0488 6.90169C10.0488 6.41246 10.0765 6.25554 10.0765 5.00015C10.0765 3.74477 10.0765 3.58784 10.0488 3.09861ZM9.21801 6.8463C9.2134 7.13707 9.16263 7.42784 9.06109 7.70477C8.98724 7.90784 8.86724 8.08784 8.71493 8.23554C8.56724 8.38784 8.38263 8.50784 8.18417 8.58169C7.90724 8.68323 7.61647 8.734 7.3257 8.73861C6.86417 8.76169 6.6934 8.7663 5.47955 8.7663C4.2657 8.7663 4.09493 8.7663 3.6334 8.73861C3.32878 8.74323 3.02416 8.69707 2.73801 8.60015C2.54878 8.52169 2.3734 8.40169 2.23032 8.254C2.07801 8.1063 1.95801 7.9263 1.88878 7.72323C1.77801 7.4463 1.7134 7.1463 1.70416 6.8463C1.70416 6.38477 1.67647 6.214 1.67647 5.00015C1.67647 3.7863 1.67647 3.61554 1.70416 3.154C1.70416 2.854 1.75955 2.55861 1.8657 2.27707C1.94878 2.08323 2.0734 1.90784 2.23032 1.76938C2.36878 1.61246 2.54416 1.48323 2.73801 1.40015C3.01955 1.29861 3.31493 1.24784 3.61493 1.24323C4.07647 1.24323 4.24724 1.21553 5.46109 1.21553C6.67493 1.21553 6.8457 1.21553 7.30724 1.24323C7.59801 1.24784 7.88878 1.29861 8.1657 1.40015C8.3734 1.47861 8.56263 1.60323 8.71493 1.76938C8.86724 1.91246 8.98263 2.08323 9.06109 2.27707C9.16263 2.55861 9.21801 2.854 9.21801 3.154C9.24109 3.61554 9.2457 3.7863 9.2457 5.00015C9.2457 6.214 9.24109 6.38477 9.21801 6.8463ZM5.46109 2.63246C4.15493 2.63707 3.0934 3.69861 3.09801 5.00477C3.10263 6.31092 4.16417 7.37246 5.47032 7.36784C6.77647 7.36323 7.8334 6.3063 7.8334 5.00015C7.83801 3.694 6.78109 2.63707 5.47493 2.63246C5.47032 2.63246 5.4657 2.63246 5.46109 2.63246ZM5.46109 6.53707C4.61186 6.53707 3.92417 5.84938 3.92417 5.00015C3.92417 4.15092 4.61186 3.46323 5.46109 3.46323C6.31032 3.46323 6.99801 4.15092 6.99801 5.00015C6.99801 5.84938 6.31032 6.53707 5.46109 6.53707Z" fill="black"/>
</svg>
