<svg width="103" height="75" viewBox="0 0 103 75" fill="none" xmlns="http://www.w3.org/2000/svg">
<path fill-rule="evenodd" clip-rule="evenodd" d="M65.0714 0H0.785645V10.7143H65.0714V0ZM102.571 0H75.7855V43.8214C74.1248 43.2321 72.3034 42.8571 70.4284 42.8571C61.5355 42.8571 54.3569 50.0357 54.3569 58.9286C54.3569 67.8214 61.5355 75 70.4284 75C79.3212 75 86.4998 67.8214 86.4998 58.9286V10.7143H102.571V0ZM0.785645 21.4286H65.0714V32.1428H0.785645V21.4286ZM43.6428 42.8572H0.785645V53.5715H43.6428V42.8572ZM70.4285 53.5714C67.4821 53.5714 65.0714 55.9822 65.0714 58.9286C65.0714 61.875 67.4821 64.2857 70.4285 64.2857C73.375 64.2857 75.7857 61.875 75.7857 58.9286C75.7857 55.9822 73.375 53.5714 70.4285 53.5714Z" fill="#1DBFF1"/>
</svg>
